<?xml version="1.0" standalone="no"?>
<!DOCTYPE svg PUBLIC "-//W3C//DTD SVG 20010904//EN"
 "http://www.w3.org/TR/2001/REC-SVG-20010904/DTD/svg10.dtd">
<svg version="1.0" xmlns="http://www.w3.org/2000/svg"
 width="1063.000000pt" height="1063.000000pt" viewBox="0 0 1063.000000 1063.000000"
 preserveAspectRatio="xMidYMid meet">
<metadata>
Created by potrace 1.14, written by Peter Selinger 2001-2017
</metadata>
<g transform="translate(0.000000,1063.000000) scale(0.100000,-0.100000)"
fill="#000000" stroke="none">
<path d="M5008 10345 c-2 -2 -50 -6 -108 -9 -58 -4 -118 -9 -135 -11 -16 -3
-57 -7 -89 -10 -75 -7 -105 -11 -241 -35 -154 -27 -157 -27 -280 -55 -60 -14
-120 -28 -132 -30 -116 -26 -424 -127 -613 -202 -148 -58 -464 -212 -605 -293
-61 -35 -119 -68 -130 -74 -111 -62 -543 -366 -575 -405 -3 -4 -48 -42 -100
-86 -131 -109 -425 -406 -546 -550 -276 -332 -467 -622 -656 -999 -49 -100
-90 -182 -89 -183 0 -2 -9 -24 -20 -50 -155 -360 -281 -796 -344 -1193 -9 -57
-21 -154 -30 -235 -3 -27 -8 -68 -10 -90 -38 -346 -20 -912 40 -1275 2 -14 7
-45 10 -70 5 -38 18 -99 70 -350 9 -44 58 -220 90 -324 198 -648 544 -1274
995 -1801 135 -158 424 -444 575 -570 480 -401 985 -690 1533 -879 140 -48
282 -91 330 -101 9 -2 44 -10 77 -19 167 -43 476 -96 649 -112 34 -3 77 -7 96
-9 313 -32 843 -18 1170 30 14 2 52 7 85 11 33 3 62 8 65 9 3 2 24 6 46 9 22
4 51 9 64 11 14 3 39 8 55 11 17 3 50 10 75 15 43 10 69 15 116 24 87 14 481
130 498 146 5 5 -6 4 -25 -1 -19 -5 -45 -11 -59 -14 -147 -28 -191 -36 -225
-41 -22 -3 -67 -10 -100 -15 -93 -14 -221 -30 -292 -35 -21 -2 -83 -7 -138
-12 -130 -10 -689 -10 -830 0 -175 14 -195 16 -295 28 -120 14 -137 16 -180
23 -19 4 -62 11 -95 17 -700 121 -1327 369 -1816 717 -98 69 -116 83 -283 222
-219 180 -537 505 -720 734 -26 34 -58 72 -70 86 -12 14 -60 77 -106 140 -47
64 -95 129 -107 145 -12 17 -34 50 -49 75 -15 25 -30 47 -34 50 -11 8 -145
229 -203 335 -231 420 -416 961 -492 1440 -15 93 -22 148 -30 220 -3 28 -8 64
-10 80 -23 177 -23 631 0 870 9 94 23 196 30 231 2 11 7 45 11 75 3 30 8 57
10 60 2 4 6 24 10 45 3 22 12 68 20 104 9 36 18 76 20 90 9 46 53 204 83 300
178 568 440 1064 818 1550 152 195 457 509 647 665 27 22 58 48 70 58 11 11
64 51 116 90 52 40 97 74 100 77 8 8 59 43 156 108 534 356 1141 604 1764 722
141 27 287 49 360 56 30 3 66 7 80 9 91 16 500 25 560 12 14 -3 29 -6 35 -6 6
-1 6 -4 0 -10 -13 -11 -59 -22 -305 -75 -257 -56 -273 -59 -285 -62 -139 -33
-294 -71 -385 -94 -63 -17 -125 -32 -136 -35 -12 -3 -52 -14 -89 -26 -38 -11
-75 -22 -84 -24 -14 -3 -72 -21 -286 -90 -521 -168 -1039 -477 -1470 -876
-308 -286 -546 -567 -685 -809 -72 -127 -130 -263 -123 -290 6 -23 230 -113
336 -134 15 -3 39 -8 54 -12 15 -3 29 -7 33 -9 14 -9 197 -36 282 -42 185 -13
347 -5 568 27 36 5 83 12 104 15 68 9 312 65 423 96 299 84 583 197 1258 499
138 62 324 143 415 181 91 38 174 73 185 78 112 50 469 173 675 232 186 53
417 108 565 133 50 9 101 18 115 20 36 7 87 14 145 21 28 4 61 8 75 11 113 19
508 26 622 12 107 -14 221 -32 328 -53 54 -10 235 -64 345 -103 225 -78 459
-188 713 -337 80 -47 85 -52 137 -139 106 -182 242 -465 330 -691 91 -235 191
-583 231 -805 2 -14 9 -47 14 -75 7 -42 14 -91 25 -175 1 -8 5 -46 10 -85 4
-38 9 -78 11 -88 22 -123 22 -729 -1 -902 -8 -63 -15 -122 -20 -170 -3 -27
-10 -75 -15 -105 -5 -30 -12 -73 -16 -95 -3 -22 -17 -92 -30 -155 -14 -63 -27
-125 -29 -136 -16 -73 -63 -239 -102 -359 -138 -425 -318 -798 -566 -1170 -70
-106 -181 -261 -197 -275 -3 -3 -17 -21 -32 -42 -15 -20 -33 -42 -40 -50 -7
-7 -33 -38 -58 -68 -173 -212 -480 -506 -735 -705 -96 -75 -346 -246 -432
-296 -362 -210 -584 -310 -958 -432 -155 -50 -507 -131 -660 -150 -124 -17
-216 -28 -260 -32 -276 -25 -698 -25 -965 0 -19 2 -69 6 -110 10 -41 4 -84 9
-95 11 -11 2 -40 6 -65 9 -131 16 -223 32 -370 61 -158 33 -143 29 -225 49
-38 9 -77 18 -85 20 -138 31 -445 123 -507 151 -17 8 -36 14 -43 14 -6 0 -25
7 -41 16 -17 8 -33 13 -36 11 -4 -5 48 -38 157 -100 45 -25 328 -167 334 -167
2 0 33 -13 68 -29 157 -72 428 -165 643 -221 247 -64 412 -94 690 -122 191
-20 857 -15 945 7 8 2 46 7 85 10 38 4 72 8 75 10 3 1 32 6 65 10 32 3 62 8
65 10 3 1 26 6 51 9 67 9 307 62 429 95 230 63 520 166 700 248 66 30 369 180
390 193 8 5 51 30 95 56 388 228 679 455 1015 793 193 193 294 309 435 496 74
99 235 330 235 338 0 2 30 53 66 113 65 108 216 408 269 534 116 277 224 646
270 920 9 52 18 106 20 120 3 14 7 50 10 80 3 30 8 62 10 70 4 14 10 90 20
240 11 158 6 490 -10 658 -10 104 -17 168 -20 192 -2 14 -7 45 -10 70 -17 125
-53 312 -91 465 -14 55 -27 108 -29 118 -8 36 -58 196 -100 317 -129 377 -322
771 -534 1090 -31 47 -61 99 -67 115 -96 259 -472 703 -914 1079 -174 148
-518 396 -670 484 -19 11 -91 53 -160 92 -129 75 -333 179 -455 232 -38 17
-88 38 -110 48 -43 19 -283 111 -300 115 -5 1 -17 5 -25 8 -27 11 -245 77
-268 82 -12 2 -26 6 -30 9 -5 3 -19 7 -33 10 -13 2 -84 18 -157 35 -193 45
-394 77 -587 96 -33 3 -85 8 -115 11 -55 6 -577 13 -582 9z"/>
<path d="M6820 8446 c-41 -6 -79 -12 -83 -13 -4 -2 -18 -3 -32 -3 -24 0 -25
-2 -20 -52 19 -214 20 -564 1 -724 -3 -27 -8 -74 -11 -104 -3 -30 -8 -66 -10
-80 -5 -37 -16 -110 -21 -145 -12 -83 -14 -87 -43 -81 -74 18 -201 18 -270 1
-89 -22 -215 -85 -314 -158 l-75 -56 -63 26 c-279 114 -579 54 -777 -154 -77
-82 -113 -165 -117 -273 l-2 -55 -77 -40 c-216 -113 -351 -273 -392 -468 -17
-77 -14 -191 6 -260 6 -22 10 -40 8 -41 -2 -2 -25 -18 -53 -36 -169 -112 -307
-266 -362 -404 -25 -63 -34 -181 -20 -268 8 -50 54 -182 84 -242 21 -42 23
-51 11 -60 -121 -90 -191 -204 -235 -381 -3 -11 -6 -64 -8 -117 -4 -131 25
-227 90 -292 16 -16 16 -19 -7 -54 -89 -137 -123 -327 -89 -497 34 -167 164
-335 330 -426 24 -14 45 -32 47 -41 1 -9 5 -35 8 -57 25 -181 112 -361 215
-444 55 -44 182 -108 266 -132 90 -26 224 -24 299 5 l58 22 42 -39 c82 -78
172 -131 281 -165 82 -26 218 -34 286 -18 81 19 199 82 288 154 44 35 82 62
85 59 3 -3 47 -7 98 -8 153 -3 277 40 374 132 60 56 150 185 190 271 24 54 31
61 63 67 20 4 78 27 129 53 116 57 211 146 260 242 34 67 35 73 57 179 24 117
12 275 -32 406 -10 30 -12 50 -6 52 21 7 80 55 136 110 191 188 232 399 133
689 l-23 70 81 64 c137 110 223 238 247 367 16 85 4 257 -26 372 -8 31 -10 60
-6 65 10 12 46 131 56 186 4 19 9 84 10 143 3 92 0 118 -20 176 -31 92 -84
172 -165 251 -59 58 -68 71 -74 114 -20 129 -30 160 -91 289 -45 97 -115 169
-210 219 -71 37 -199 75 -268 80 -33 2 -43 9 -67 43 -39 57 -128 147 -178 180
-47 31 -45 27 -33 75 6 19 12 49 14 65 3 17 17 98 31 180 14 83 30 188 36 235
6 47 12 99 15 115 17 124 33 352 39 553 2 63 0 92 -8 91 -6 -1 -45 -6 -86 -13z"/>
</g>
</svg>
